{
  "id": "@releaseName@",
  "time": "@releaseTime@",
  "releaseTime": "@releaseTime@",
  "type": "release",
  "minecraftArguments": "--username ${auth_player_name} --version ${version_name} --gameDir ${game_directory} --assetsDir ${assets_root} --assetIndex ${assets_index_name} --uuid ${auth_uuid} --accessToken ${auth_access_token} --userProperties ${user_properties} --userType ${user_type}  --tweakClass optifine.OptiFineTweaker",
  "libraries": [
    {
      "name": "optifine:OptiFine:1.8.8_HD_U_H6"
    },
    {
      "name": "net.minecraft:launchwrapper:1.7"
    },
    {
        "group":    "org.scala-lang",
        "name":     "scala-library",
        "version":  "2.10.3"
    },
    {
        "group":    "org.scalaj",
        "name":     "scalaj-http",
        "version":  "0.3.14"
    }
  ],
  "mainClass": "pw.bowser.boot.StandardBootloader",
  "minimumLauncherVersion": 14,
  "assets": "1.8",
  "downloads": {
  },
  "assetIndex": {
    "totalSize": 114708537,
    "id": "1.8",
    "known": true,
    "url": "https://launchermeta.mojang.com/mc/assets/1.8/e264980ad255aad2174cbe4d674c102474ae5202/1.8.json",
    "sha1": "e264980ad255aad2174cbe4d674c102474ae5202",
    "size": 94650
  },
  "inheritsFrom": "1.8.8"
}
