<?xml version="1.0" encoding="UTF8" standalone="yes"?>
<!--Created by TWL Theme Editor-->
<font>
  <info face="Advert" size="30" bold="0" italic="0" charset="" unicode="1" stretchH="100" smooth="0" aa="1" padding="0,0,0,0" spacing="1,1" />
  <common lineHeight="35" base="29" scaleW="4096" scaleH="4096" pages="1" packed="0" />
  <pages>
    <page id="0" file="advert_00.png" />
  </pages>
  <chars count="95">
    <char id="32" x="1462" y="0" width="0" height="0" xoffset="0" yoffset="29" xadvance="8" page="0" chnl="0" />
    <char id="33" x="1026" y="0" width="7" height="22" xoffset="2" yoffset="7" xadvance="11" page="0" chnl="0" />
    <char id="34" x="1377" y="0" width="11" height="9" xoffset="1" yoffset="7" xadvance="15" page="0" chnl="0" />
    <char id="35" x="1274" y="0" width="16" height="15" xoffset="0" yoffset="7" xadvance="17" page="0" chnl="0" />
    <char id="36" x="979" y="0" width="13" height="22" xoffset="0" yoffset="7" xadvance="15" page="0" chnl="0" />
    <char id="37" x="503" y="0" width="17" height="22" xoffset="1" yoffset="7" xadvance="19" page="0" chnl="0" />
    <char id="38" x="462" y="0" width="21" height="22" xoffset="1" yoffset="7" xadvance="25" page="0" chnl="0" />
    <char id="39" x="1396" y="0" width="5" height="9" xoffset="1" yoffset="7" xadvance="8" page="0" chnl="0" />
    <char id="40" x="14" y="0" width="12" height="30" xoffset="1" yoffset="5" xadvance="14" page="0" chnl="0" />
    <char id="41" x="0" y="0" width="13" height="30" xoffset="1" yoffset="5" xadvance="15" page="0" chnl="0" />
    <char id="42" x="1366" y="0" width="10" height="11" xoffset="4" yoffset="9" xadvance="17" page="0" chnl="0" />
    <char id="43" x="1336" y="0" width="14" height="13" xoffset="1" yoffset="12" xadvance="16" page="0" chnl="0" />
    <char id="44" x="1389" y="0" width="6" height="9" xoffset="2" yoffset="24" xadvance="10" page="0" chnl="0" />
    <char id="45" x="1402" y="0" width="12" height="6" xoffset="1" yoffset="16" xadvance="15" page="0" chnl="0" />
    <char id="46" x="1429" y="0" width="7" height="5" xoffset="2" yoffset="24" xadvance="10" page="0" chnl="0" />
    <char id="47" x="365" y="0" width="15" height="25" xoffset="0" yoffset="6" xadvance="15" page="0" chnl="0" />
    <char id="48" x="695" y="0" width="15" height="22" xoffset="1" yoffset="7" xadvance="17" page="0" chnl="0" />
    <char id="49" x="1005" y="0" width="10" height="22" xoffset="1" yoffset="7" xadvance="13" page="0" chnl="0" />
    <char id="50" x="919" y="0" width="14" height="22" xoffset="2" yoffset="7" xadvance="19" page="0" chnl="0" />
    <char id="51" x="711" y="0" width="15" height="22" xoffset="1" yoffset="7" xadvance="18" page="0" chnl="0" />
    <char id="52" x="521" y="0" width="17" height="22" xoffset="1" yoffset="7" xadvance="20" page="0" chnl="0" />
    <char id="53" x="727" y="0" width="15" height="22" xoffset="2" yoffset="7" xadvance="20" page="0" chnl="0" />
    <char id="54" x="743" y="0" width="15" height="22" xoffset="1" yoffset="7" xadvance="18" page="0" chnl="0" />
    <char id="55" x="759" y="0" width="15" height="22" xoffset="0" yoffset="7" xadvance="17" page="0" chnl="0" />
    <char id="56" x="593" y="0" width="16" height="22" xoffset="1" yoffset="7" xadvance="19" page="0" chnl="0" />
    <char id="57" x="775" y="0" width="15" height="22" xoffset="1" yoffset="7" xadvance="18" page="0" chnl="0" />
    <char id="58" x="1266" y="0" width="7" height="16" xoffset="2" yoffset="13" xadvance="11" page="0" chnl="0" />
    <char id="59" x="1042" y="0" width="7" height="20" xoffset="2" yoffset="13" xadvance="11" page="0" chnl="0" />
    <char id="60" x="1291" y="0" width="14" height="14" xoffset="2" yoffset="12" xadvance="18" page="0" chnl="0" />
    <char id="61" x="1351" y="0" width="14" height="12" xoffset="1" yoffset="13" xadvance="16" page="0" chnl="0" />
    <char id="62" x="1306" y="0" width="14" height="14" xoffset="3" yoffset="12" xadvance="19" page="0" chnl="0" />
    <char id="63" x="934" y="0" width="14" height="22" xoffset="1" yoffset="7" xadvance="16" page="0" chnl="0" />
    <char id="64" x="439" y="0" width="22" height="22" xoffset="1" yoffset="7" xadvance="23" page="0" chnl="0" />
    <char id="65" x="326" y="0" width="20" height="27" xoffset="2" yoffset="7" xadvance="23" page="0" chnl="0" />
    <char id="66" x="201" y="0" width="17" height="28" xoffset="2" yoffset="7" xadvance="20" page="0" chnl="0" />
    <char id="67" x="949" y="0" width="14" height="22" xoffset="1" yoffset="7" xadvance="17" page="0" chnl="0" />
    <char id="68" x="163" y="0" width="18" height="28" xoffset="1" yoffset="7" xadvance="20" page="0" chnl="0" />
    <char id="69" x="791" y="0" width="15" height="22" xoffset="1" yoffset="7" xadvance="17" page="0" chnl="0" />
    <char id="70" x="219" y="0" width="17" height="28" xoffset="1" yoffset="7" xadvance="20" page="0" chnl="0" />
    <char id="71" x="807" y="0" width="15" height="22" xoffset="1" yoffset="7" xadvance="17" page="0" chnl="0" />
    <char id="72" x="98" y="0" width="22" height="28" xoffset="1" yoffset="7" xadvance="24" page="0" chnl="0" />
    <char id="73" x="964" y="0" width="14" height="22" xoffset="2" yoffset="7" xadvance="17" page="0" chnl="0" />
    <char id="74" x="78" y="0" width="14" height="29" xoffset="2" yoffset="6" xadvance="16" page="0" chnl="0" />
    <char id="75" x="303" y="0" width="22" height="27" xoffset="1" yoffset="7" xadvance="24" page="0" chnl="0" />
    <char id="76" x="610" y="0" width="16" height="22" xoffset="2" yoffset="7" xadvance="20" page="0" chnl="0" />
    <char id="77" x="276" y="0" width="26" height="27" xoffset="1" yoffset="7" xadvance="29" page="0" chnl="0" />
    <char id="78" x="121" y="0" width="21" height="28" xoffset="2" yoffset="7" xadvance="24" page="0" chnl="0" />
    <char id="79" x="627" y="0" width="16" height="22" xoffset="1" yoffset="7" xadvance="18" page="0" chnl="0" />
    <char id="80" x="182" y="0" width="18" height="28" xoffset="1" yoffset="7" xadvance="20" page="0" chnl="0" />
    <char id="81" x="237" y="0" width="16" height="28" xoffset="1" yoffset="7" xadvance="18" page="0" chnl="0" />
    <char id="82" x="347" y="0" width="17" height="26" xoffset="1" yoffset="7" xadvance="18" page="0" chnl="0" />
    <char id="83" x="397" y="0" width="16" height="23" xoffset="0" yoffset="7" xadvance="16" page="0" chnl="0" />
    <char id="84" x="823" y="0" width="15" height="22" xoffset="2" yoffset="7" xadvance="18" page="0" chnl="0" />
    <char id="85" x="539" y="0" width="17" height="22" xoffset="1" yoffset="7" xadvance="20" page="0" chnl="0" />
    <char id="86" x="557" y="0" width="17" height="22" xoffset="0" yoffset="7" xadvance="18" page="0" chnl="0" />
    <char id="87" x="414" y="0" width="24" height="22" xoffset="0" yoffset="7" xadvance="25" page="0" chnl="0" />
    <char id="88" x="484" y="0" width="18" height="22" xoffset="1" yoffset="7" xadvance="20" page="0" chnl="0" />
    <char id="89" x="143" y="0" width="19" height="28" xoffset="1" yoffset="7" xadvance="21" page="0" chnl="0" />
    <char id="90" x="575" y="0" width="17" height="22" xoffset="2" yoffset="7" xadvance="21" page="0" chnl="0" />
    <char id="91" x="66" y="0" width="11" height="30" xoffset="3" yoffset="5" xadvance="16" page="0" chnl="0" />
    <char id="92" x="381" y="0" width="15" height="25" xoffset="0" yoffset="6" xadvance="15" page="0" chnl="0" />
    <char id="93" x="27" y="0" width="12" height="30" xoffset="1" yoffset="5" xadvance="16" page="0" chnl="0" />
    <char id="94" x="1321" y="0" width="14" height="14" xoffset="2" yoffset="10" xadvance="18" page="0" chnl="0" />
    <char id="95" x="1446" y="0" width="15" height="3" xoffset="0" yoffset="30" xadvance="16" page="0" chnl="0" />
    <char id="96" x="1437" y="0" width="8" height="4" xoffset="0" yoffset="8" xadvance="11" page="0" chnl="0" />
    <char id="97" x="1132" y="0" width="15" height="16" xoffset="2" yoffset="13" xadvance="17" page="0" chnl="0" />
    <char id="98" x="839" y="0" width="15" height="22" xoffset="0" yoffset="7" xadvance="15" page="0" chnl="0" />
    <char id="99" x="1240" y="0" width="12" height="16" xoffset="1" yoffset="13" xadvance="14" page="0" chnl="0" />
    <char id="100" x="644" y="0" width="16" height="22" xoffset="1" yoffset="7" xadvance="18" page="0" chnl="0" />
    <char id="101" x="1226" y="0" width="13" height="16" xoffset="1" yoffset="13" xadvance="15" page="0" chnl="0" />
    <char id="102" x="254" y="0" width="11" height="28" xoffset="1" yoffset="7" xadvance="13" page="0" chnl="0" />
    <char id="103" x="855" y="0" width="15" height="22" xoffset="1" yoffset="13" xadvance="17" page="0" chnl="0" />
    <char id="104" x="871" y="0" width="15" height="22" xoffset="2" yoffset="7" xadvance="18" page="0" chnl="0" />
    <char id="105" x="1034" y="0" width="7" height="22" xoffset="2" yoffset="7" xadvance="10" page="0" chnl="0" />
    <char id="106" x="266" y="0" width="9" height="28" xoffset="1" yoffset="7" xadvance="11" page="0" chnl="0" />
    <char id="107" x="661" y="0" width="16" height="22" xoffset="1" yoffset="7" xadvance="18" page="0" chnl="0" />
    <char id="108" x="1016" y="0" width="9" height="22" xoffset="0" yoffset="7" xadvance="10" page="0" chnl="0" />
    <char id="109" x="1050" y="0" width="25" height="16" xoffset="1" yoffset="13" xadvance="26" page="0" chnl="0" />
    <char id="110" x="1097" y="0" width="17" height="16" xoffset="1" yoffset="13" xadvance="18" page="0" chnl="0" />
    <char id="111" x="1196" y="0" width="14" height="16" xoffset="1" yoffset="13" xadvance="15" page="0" chnl="0" />
    <char id="112" x="887" y="0" width="15" height="22" xoffset="1" yoffset="13" xadvance="17" page="0" chnl="0" />
    <char id="113" x="903" y="0" width="15" height="22" xoffset="1" yoffset="13" xadvance="17" page="0" chnl="0" />
    <char id="114" x="1253" y="0" width="12" height="16" xoffset="1" yoffset="13" xadvance="15" page="0" chnl="0" />
    <char id="115" x="1211" y="0" width="14" height="16" xoffset="2" yoffset="13" xadvance="17" page="0" chnl="0" />
    <char id="116" x="993" y="0" width="11" height="22" xoffset="1" yoffset="7" xadvance="13" page="0" chnl="0" />
    <char id="117" x="1115" y="0" width="16" height="16" xoffset="1" yoffset="13" xadvance="17" page="0" chnl="0" />
    <char id="118" x="1148" y="0" width="15" height="16" xoffset="0" yoffset="13" xadvance="17" page="0" chnl="0" />
    <char id="119" x="1076" y="0" width="20" height="16" xoffset="1" yoffset="13" xadvance="22" page="0" chnl="0" />
    <char id="120" x="1164" y="0" width="15" height="16" xoffset="2" yoffset="13" xadvance="18" page="0" chnl="0" />
    <char id="121" x="678" y="0" width="16" height="22" xoffset="1" yoffset="13" xadvance="18" page="0" chnl="0" />
    <char id="122" x="1180" y="0" width="15" height="16" xoffset="2" yoffset="13" xadvance="18" page="0" chnl="0" />
    <char id="123" x="40" y="0" width="12" height="30" xoffset="1" yoffset="5" xadvance="15" page="0" chnl="0" />
    <char id="124" x="93" y="0" width="4" height="29" xoffset="6" yoffset="5" xadvance="16" page="0" chnl="0" />
    <char id="125" x="53" y="0" width="12" height="30" xoffset="2" yoffset="5" xadvance="15" page="0" chnl="0" />
    <char id="126" x="1415" y="0" width="13" height="5" xoffset="2" yoffset="16" xadvance="17" page="0" chnl="0" />
  </chars>
  <kernings count="0">
  </kernings>
</font>