<?xml version="1.0" encoding="UTF8" standalone="yes"?>
<!--Created by TWL Theme Editor-->
<font>
  <info face="Roboto Lt,Bold Italic" size="21" bold="1" italic="1" charset="" unicode="1" stretchH="100" smooth="0" aa="1" padding="0,0,0,0" spacing="1,1" />
  <common lineHeight="25" base="19" scaleW="512" scaleH="512" pages="1" packed="0" />
  <pages>
    <page id="0" file="roboto_italic_00.png" />
  </pages>
  <chars count="328">
    <char id="0" x="51" y="0" width="0" height="0" xoffset="0" yoffset="19" xadvance="0" page="0" chnl="0" />
    <char id="9" x="55" y="0" width="0" height="0" xoffset="0" yoffset="19" xadvance="0" page="0" chnl="0" />
    <char id="13" x="52" y="0" width="0" height="0" xoffset="0" yoffset="19" xadvance="5" page="0" chnl="0" />
    <char id="32" x="53" y="0" width="0" height="0" xoffset="0" yoffset="19" xadvance="5" page="0" chnl="0" />
    <char id="33" x="425" y="111" width="6" height="15" xoffset="0" yoffset="4" xadvance="6" page="0" chnl="0" />
    <char id="34" x="74" y="129" width="8" height="5" xoffset="1" yoffset="4" xadvance="8" page="0" chnl="0" />
    <char id="35" x="254" y="96" width="13" height="15" xoffset="0" yoffset="4" xadvance="13" page="0" chnl="0" />
    <char id="36" x="213" y="21" width="12" height="20" xoffset="0" yoffset="1" xadvance="12" page="0" chnl="0" />
    <char id="37" x="418" y="95" width="14" height="15" xoffset="1" yoffset="4" xadvance="15" page="0" chnl="0" />
    <char id="38" x="240" y="96" width="13" height="15" xoffset="0" yoffset="4" xadvance="13" page="0" chnl="0" />
    <char id="39" x="57" y="129" width="4" height="5" xoffset="1" yoffset="4" xadvance="5" page="0" chnl="0" />
    <char id="40" x="139" y="0" width="9" height="21" xoffset="0" yoffset="2" xadvance="7" page="0" chnl="0" />
    <char id="41" x="149" y="0" width="9" height="21" xoffset="-2" yoffset="3" xadvance="7" page="0" chnl="0" />
    <char id="42" x="143" y="129" width="8" height="8" xoffset="1" yoffset="8" xadvance="9" page="0" chnl="0" />
    <char id="43" x="500" y="109" width="12" height="12" xoffset="0" yoffset="6" xadvance="12" page="0" chnl="0" />
    <char id="44" x="68" y="129" width="5" height="5" xoffset="-1" yoffset="17" xadvance="5" page="0" chnl="0" />
    <char id="45" x="20" y="133" width="7" height="2" xoffset="1" yoffset="12" xadvance="9" page="0" chnl="0" />
    <char id="46" x="36" y="134" width="4" height="2" xoffset="0" yoffset="17" xadvance="6" page="0" chnl="0" />
    <char id="47" x="47" y="63" width="11" height="16" xoffset="-1" yoffset="4" xadvance="9" page="0" chnl="0" />
    <char id="48" x="59" y="97" width="12" height="15" xoffset="0" yoffset="4" xadvance="12" page="0" chnl="0" />
    <char id="49" x="417" y="111" width="7" height="15" xoffset="3" yoffset="4" xadvance="12" page="0" chnl="0" />
    <char id="50" x="46" y="97" width="12" height="15" xoffset="0" yoffset="4" xadvance="12" page="0" chnl="0" />
    <char id="51" x="33" y="97" width="12" height="15" xoffset="0" yoffset="4" xadvance="12" page="0" chnl="0" />
    <char id="52" x="20" y="97" width="12" height="15" xoffset="0" yoffset="4" xadvance="12" page="0" chnl="0" />
    <char id="53" x="7" y="97" width="12" height="15" xoffset="0" yoffset="4" xadvance="12" page="0" chnl="0" />
    <char id="54" x="0" y="113" width="12" height="15" xoffset="0" yoffset="4" xadvance="12" page="0" chnl="0" />
    <char id="55" x="13" y="113" width="12" height="15" xoffset="1" yoffset="4" xadvance="12" page="0" chnl="0" />
    <char id="56" x="26" y="113" width="12" height="15" xoffset="0" yoffset="4" xadvance="12" page="0" chnl="0" />
    <char id="57" x="195" y="113" width="11" height="15" xoffset="1" yoffset="4" xadvance="12" page="0" chnl="0" />
    <char id="58" x="235" y="128" width="5" height="11" xoffset="0" yoffset="8" xadvance="6" page="0" chnl="0" />
    <char id="59" x="500" y="94" width="5" height="14" xoffset="0" yoffset="8" xadvance="6" page="0" chnl="0" />
    <char id="60" x="241" y="128" width="10" height="11" xoffset="0" yoffset="8" xadvance="11" page="0" chnl="0" />
    <char id="61" x="131" y="129" width="11" height="7" xoffset="1" yoffset="8" xadvance="12" page="0" chnl="0" />
    <char id="62" x="324" y="128" width="11" height="11" xoffset="0" yoffset="8" xadvance="11" page="0" chnl="0" />
    <char id="63" x="375" y="111" width="10" height="15" xoffset="1" yoffset="4" xadvance="10" page="0" chnl="0" />
    <char id="64" x="28" y="23" width="19" height="19" xoffset="0" yoffset="4" xadvance="19" page="0" chnl="0" />
    <char id="65" x="403" y="95" width="14" height="15" xoffset="-1" yoffset="4" xadvance="13" page="0" chnl="0" />
    <char id="66" x="226" y="96" width="13" height="15" xoffset="0" yoffset="4" xadvance="13" page="0" chnl="0" />
    <char id="67" x="388" y="95" width="14" height="15" xoffset="0" yoffset="4" xadvance="13" page="0" chnl="0" />
    <char id="68" x="373" y="95" width="14" height="15" xoffset="0" yoffset="4" xadvance="14" page="0" chnl="0" />
    <char id="69" x="212" y="96" width="13" height="15" xoffset="0" yoffset="4" xadvance="12" page="0" chnl="0" />
    <char id="70" x="198" y="96" width="13" height="15" xoffset="0" yoffset="4" xadvance="12" page="0" chnl="0" />
    <char id="71" x="358" y="95" width="14" height="15" xoffset="0" yoffset="4" xadvance="14" page="0" chnl="0" />
    <char id="72" x="497" y="78" width="15" height="15" xoffset="0" yoffset="4" xadvance="15" page="0" chnl="0" />
    <char id="73" x="432" y="110" width="6" height="15" xoffset="0" yoffset="4" xadvance="6" page="0" chnl="0" />
    <char id="74" x="39" y="113" width="12" height="15" xoffset="0" yoffset="4" xadvance="12" page="0" chnl="0" />
    <char id="75" x="343" y="95" width="14" height="15" xoffset="0" yoffset="4" xadvance="13" page="0" chnl="0" />
    <char id="76" x="207" y="112" width="11" height="15" xoffset="0" yoffset="4" xadvance="12" page="0" chnl="0" />
    <char id="77" x="369" y="79" width="19" height="15" xoffset="0" yoffset="4" xadvance="18" page="0" chnl="0" />
    <char id="78" x="481" y="94" width="15" height="15" xoffset="0" yoffset="4" xadvance="15" page="0" chnl="0" />
    <char id="79" x="465" y="94" width="15" height="15" xoffset="0" yoffset="4" xadvance="14" page="0" chnl="0" />
    <char id="80" x="328" y="95" width="14" height="15" xoffset="0" yoffset="4" xadvance="13" page="0" chnl="0" />
    <char id="81" x="476" y="42" width="15" height="17" xoffset="0" yoffset="4" xadvance="15" page="0" chnl="0" />
    <char id="82" x="184" y="97" width="13" height="15" xoffset="0" yoffset="4" xadvance="13" page="0" chnl="0" />
    <char id="83" x="170" y="97" width="13" height="15" xoffset="0" yoffset="4" xadvance="13" page="0" chnl="0" />
    <char id="84" x="156" y="97" width="13" height="15" xoffset="1" yoffset="4" xadvance="12" page="0" chnl="0" />
    <char id="85" x="449" y="94" width="15" height="15" xoffset="0" yoffset="4" xadvance="14" page="0" chnl="0" />
    <char id="86" x="313" y="96" width="14" height="15" xoffset="1" yoffset="4" xadvance="13" page="0" chnl="0" />
    <char id="87" x="389" y="79" width="19" height="15" xoffset="1" yoffset="4" xadvance="18" page="0" chnl="0" />
    <char id="88" x="464" y="78" width="16" height="15" xoffset="-1" yoffset="4" xadvance="13" page="0" chnl="0" />
    <char id="89" x="298" y="96" width="14" height="15" xoffset="1" yoffset="4" xadvance="13" page="0" chnl="0" />
    <char id="90" x="52" y="113" width="12" height="15" xoffset="0" yoffset="4" xadvance="12" page="0" chnl="0" />
    <char id="91" x="159" y="0" width="8" height="21" xoffset="0" yoffset="1" xadvance="6" page="0" chnl="0" />
    <char id="92" x="289" y="79" width="7" height="16" xoffset="1" yoffset="4" xadvance="9" page="0" chnl="0" />
    <char id="93" x="168" y="0" width="8" height="21" xoffset="-2" yoffset="1" xadvance="6" page="0" chnl="0" />
    <char id="94" x="121" y="129" width="9" height="7" xoffset="0" yoffset="4" xadvance="9" page="0" chnl="0" />
    <char id="95" x="2" y="129" width="11" height="2" xoffset="-2" yoffset="19" xadvance="9" page="0" chnl="0" />
    <char id="96" x="14" y="129" width="5" height="3" xoffset="2" yoffset="3" xadvance="7" page="0" chnl="0" />
    <char id="97" x="312" y="128" width="11" height="11" xoffset="0" yoffset="8" xadvance="11" page="0" chnl="0" />
    <char id="98" x="319" y="62" width="12" height="16" xoffset="0" yoffset="3" xadvance="12" page="0" chnl="0" />
    <char id="99" x="300" y="128" width="11" height="11" xoffset="0" yoffset="8" xadvance="11" page="0" chnl="0" />
    <char id="100" x="388" y="62" width="13" height="16" xoffset="0" yoffset="3" xadvance="12" page="0" chnl="0" />
    <char id="101" x="288" y="128" width="11" height="11" xoffset="0" yoffset="8" xadvance="11" page="0" chnl="0" />
    <char id="102" x="203" y="79" width="9" height="16" xoffset="1" yoffset="3" xadvance="7" page="0" chnl="0" />
    <char id="103" x="65" y="113" width="12" height="15" xoffset="0" yoffset="8" xadvance="12" page="0" chnl="0" />
    <char id="104" x="306" y="62" width="12" height="16" xoffset="0" yoffset="3" xadvance="12" page="0" chnl="0" />
    <char id="105" x="305" y="79" width="6" height="16" xoffset="0" yoffset="3" xadvance="5" page="0" chnl="0" />
    <char id="106" x="103" y="22" width="9" height="20" xoffset="-3" yoffset="3" xadvance="6" page="0" chnl="0" />
    <char id="107" x="293" y="62" width="12" height="16" xoffset="0" yoffset="3" xadvance="11" page="0" chnl="0" />
    <char id="108" x="312" y="79" width="6" height="16" xoffset="0" yoffset="3" xadvance="5" page="0" chnl="0" />
    <char id="109" x="452" y="125" width="18" height="11" xoffset="0" yoffset="8" xadvance="18" page="0" chnl="0" />
    <char id="110" x="375" y="127" width="12" height="11" xoffset="0" yoffset="8" xadvance="12" page="0" chnl="0" />
    <char id="111" x="362" y="127" width="12" height="11" xoffset="0" yoffset="8" xadvance="12" page="0" chnl="0" />
    <char id="112" x="142" y="97" width="13" height="15" xoffset="-1" yoffset="8" xadvance="12" page="0" chnl="0" />
    <char id="113" x="78" y="113" width="12" height="15" xoffset="0" yoffset="8" xadvance="12" page="0" chnl="0" />
    <char id="114" x="491" y="125" width="8" height="12" xoffset="0" yoffset="7" xadvance="7" page="0" chnl="0" />
    <char id="115" x="276" y="128" width="11" height="11" xoffset="0" yoffset="8" xadvance="11" page="0" chnl="0" />
    <char id="116" x="482" y="110" width="8" height="14" xoffset="0" yoffset="5" xadvance="7" page="0" chnl="0" />
    <char id="117" x="349" y="127" width="12" height="11" xoffset="0" yoffset="8" xadvance="12" page="0" chnl="0" />
    <char id="118" x="264" y="128" width="11" height="11" xoffset="1" yoffset="8" xadvance="11" page="0" chnl="0" />
    <char id="119" x="416" y="127" width="16" height="11" xoffset="1" yoffset="8" xadvance="16" page="0" chnl="0" />
    <char id="120" x="402" y="127" width="13" height="11" xoffset="-1" yoffset="8" xadvance="11" page="0" chnl="0" />
    <char id="121" x="128" y="97" width="13" height="15" xoffset="-1" yoffset="8" xadvance="11" page="0" chnl="0" />
    <char id="122" x="252" y="128" width="11" height="11" xoffset="0" yoffset="8" xadvance="11" page="0" chnl="0" />
    <char id="123" x="13" y="0" width="9" height="22" xoffset="0" yoffset="2" xadvance="7" page="0" chnl="0" />
    <char id="124" x="482" y="60" width="6" height="17" xoffset="0" yoffset="4" xadvance="5" page="0" chnl="0" />
    <char id="125" x="23" y="0" width="8" height="22" xoffset="-1" yoffset="2" xadvance="7" page="0" chnl="0" />
    <char id="126" x="94" y="129" width="13" height="5" xoffset="1" yoffset="10" xadvance="14" page="0" chnl="0" />
    <char id="160" x="54" y="0" width="0" height="0" xoffset="0" yoffset="19" xadvance="5" page="0" chnl="0" />
    <char id="161" x="439" y="110" width="5" height="15" xoffset="0" yoffset="8" xadvance="6" page="0" chnl="0" />
    <char id="162" x="35" y="63" width="11" height="16" xoffset="0" yoffset="5" xadvance="12" page="0" chnl="0" />
    <char id="163" x="114" y="97" width="13" height="15" xoffset="0" yoffset="4" xadvance="12" page="0" chnl="0" />
    <char id="164" x="433" y="94" width="15" height="15" xoffset="0" yoffset="5" xadvance="15" page="0" chnl="0" />
    <char id="165" x="100" y="97" width="13" height="15" xoffset="1" yoffset="4" xadvance="13" page="0" chnl="0" />
    <char id="166" x="469" y="42" width="6" height="18" xoffset="0" yoffset="4" xadvance="5" page="0" chnl="0" />
    <char id="167" x="96" y="43" width="14" height="19" xoffset="-1" yoffset="4" xadvance="13" page="0" chnl="0" />
    <char id="168" x="0" y="132" width="9" height="2" xoffset="2" yoffset="4" xadvance="11" page="0" chnl="0" />
    <char id="169" x="428" y="78" width="17" height="15" xoffset="0" yoffset="4" xadvance="16" page="0" chnl="0" />
    <char id="170" x="206" y="128" width="9" height="9" xoffset="1" yoffset="4" xadvance="9" page="0" chnl="0" />
    <char id="171" x="152" y="129" width="9" height="8" xoffset="1" yoffset="9" xadvance="10" page="0" chnl="0" />
    <char id="172" x="83" y="129" width="10" height="5" xoffset="1" yoffset="11" xadvance="12" page="0" chnl="0" />
    <char id="173" x="28" y="133" width="7" height="2" xoffset="1" yoffset="12" xadvance="9" page="0" chnl="0" />
    <char id="174" x="446" y="78" width="17" height="15" xoffset="0" yoffset="4" xadvance="16" page="0" chnl="0" />
    <char id="175" x="10" y="133" width="9" height="2" xoffset="2" yoffset="4" xadvance="10" page="0" chnl="0" />
    <char id="176" x="114" y="129" width="6" height="6" xoffset="2" yoffset="4" xadvance="8" page="0" chnl="0" />
    <char id="177" x="458" y="110" width="11" height="14" xoffset="0" yoffset="5" xadvance="11" page="0" chnl="0" />
    <char id="178" x="187" y="129" width="8" height="9" xoffset="1" yoffset="4" xadvance="9" page="0" chnl="0" />
    <char id="179" x="178" y="129" width="8" height="9" xoffset="1" yoffset="4" xadvance="9" page="0" chnl="0" />
    <char id="180" x="20" y="129" width="6" height="3" xoffset="2" yoffset="3" xadvance="7" page="0" chnl="0" />
    <char id="181" x="91" y="113" width="12" height="15" xoffset="0" yoffset="8" xadvance="12" page="0" chnl="0" />
    <char id="182" x="386" y="111" width="10" height="15" xoffset="1" yoffset="4" xadvance="11" page="0" chnl="0" />
    <char id="183" x="41" y="134" width="4" height="2" xoffset="1" yoffset="11" xadvance="6" page="0" chnl="0" />
    <char id="184" x="108" y="129" width="5" height="6" xoffset="-1" yoffset="17" xadvance="5" page="0" chnl="0" />
    <char id="185" x="173" y="129" width="4" height="9" xoffset="2" yoffset="4" xadvance="6" page="0" chnl="0" />
    <char id="186" x="196" y="129" width="9" height="9" xoffset="1" yoffset="4" xadvance="10" page="0" chnl="0" />
    <char id="187" x="162" y="129" width="10" height="8" xoffset="0" yoffset="9" xadvance="10" page="0" chnl="0" />
    <char id="188" x="374" y="62" width="13" height="16" xoffset="2" yoffset="3" xadvance="16" page="0" chnl="0" />
    <char id="189" x="417" y="61" width="14" height="16" xoffset="2" yoffset="3" xadvance="17" page="0" chnl="0" />
    <char id="190" x="465" y="61" width="16" height="16" xoffset="1" yoffset="3" xadvance="18" page="0" chnl="0" />
    <char id="191" x="219" y="112" width="11" height="15" xoffset="-1" yoffset="8" xadvance="11" page="0" chnl="0" />
    <char id="192" x="437" y="0" width="14" height="20" xoffset="-1" yoffset="-1" xadvance="13" page="0" chnl="0" />
    <char id="193" x="452" y="0" width="14" height="20" xoffset="-1" yoffset="-1" xadvance="13" page="0" chnl="0" />
    <char id="194" x="467" y="0" width="14" height="20" xoffset="-1" yoffset="-1" xadvance="13" page="0" chnl="0" />
    <char id="195" x="482" y="0" width="14" height="20" xoffset="-1" yoffset="-1" xadvance="13" page="0" chnl="0" />
    <char id="196" x="111" y="43" width="14" height="19" xoffset="-1" yoffset="0" xadvance="13" page="0" chnl="0" />
    <char id="197" x="126" y="43" width="14" height="19" xoffset="-1" yoffset="0" xadvance="13" page="0" chnl="0" />
    <char id="198" x="325" y="79" width="22" height="15" xoffset="-1" yoffset="4" xadvance="20" page="0" chnl="0" />
    <char id="199" x="141" y="43" width="14" height="19" xoffset="0" yoffset="4" xadvance="13" page="0" chnl="0" />
    <char id="200" x="394" y="21" width="13" height="20" xoffset="0" yoffset="-1" xadvance="12" page="0" chnl="0" />
    <char id="201" x="380" y="21" width="13" height="20" xoffset="0" yoffset="-1" xadvance="12" page="0" chnl="0" />
    <char id="202" x="366" y="21" width="13" height="20" xoffset="0" yoffset="-1" xadvance="12" page="0" chnl="0" />
    <char id="203" x="246" y="42" width="13" height="19" xoffset="0" yoffset="0" xadvance="12" page="0" chnl="0" />
    <char id="204" x="48" y="22" width="6" height="20" xoffset="0" yoffset="-1" xadvance="6" page="0" chnl="0" />
    <char id="205" x="93" y="22" width="9" height="20" xoffset="0" yoffset="-1" xadvance="6" page="0" chnl="0" />
    <char id="206" x="83" y="22" width="9" height="20" xoffset="0" yoffset="-1" xadvance="6" page="0" chnl="0" />
    <char id="207" x="368" y="42" width="9" height="19" xoffset="0" yoffset="0" xadvance="6" page="0" chnl="0" />
    <char id="208" x="283" y="96" width="14" height="15" xoffset="0" yoffset="4" xadvance="14" page="0" chnl="0" />
    <char id="209" x="197" y="0" width="15" height="20" xoffset="0" yoffset="-1" xadvance="15" page="0" chnl="0" />
    <char id="210" x="213" y="0" width="15" height="20" xoffset="0" yoffset="-1" xadvance="14" page="0" chnl="0" />
    <char id="211" x="229" y="0" width="15" height="20" xoffset="0" yoffset="-1" xadvance="14" page="0" chnl="0" />
    <char id="212" x="245" y="0" width="15" height="20" xoffset="0" yoffset="-1" xadvance="14" page="0" chnl="0" />
    <char id="213" x="261" y="0" width="15" height="20" xoffset="0" yoffset="-1" xadvance="14" page="0" chnl="0" />
    <char id="214" x="12" y="23" width="15" height="19" xoffset="0" yoffset="0" xadvance="14" page="0" chnl="0" />
    <char id="215" x="216" y="128" width="12" height="10" xoffset="0" yoffset="7" xadvance="11" page="0" chnl="0" />
    <char id="216" x="492" y="42" width="15" height="17" xoffset="0" yoffset="3" xadvance="14" page="0" chnl="0" />
    <char id="217" x="277" y="0" width="15" height="20" xoffset="0" yoffset="-1" xadvance="14" page="0" chnl="0" />
    <char id="218" x="293" y="0" width="15" height="20" xoffset="0" yoffset="-1" xadvance="14" page="0" chnl="0" />
    <char id="219" x="309" y="0" width="15" height="20" xoffset="0" yoffset="-1" xadvance="14" page="0" chnl="0" />
    <char id="220" x="0" y="43" width="15" height="19" xoffset="0" yoffset="0" xadvance="14" page="0" chnl="0" />
    <char id="221" x="497" y="0" width="14" height="20" xoffset="1" yoffset="-1" xadvance="13" page="0" chnl="0" />
    <char id="222" x="86" y="97" width="13" height="15" xoffset="0" yoffset="4" xadvance="13" page="0" chnl="0" />
    <char id="223" x="280" y="62" width="12" height="16" xoffset="0" yoffset="3" xadvance="13" page="0" chnl="0" />
    <char id="224" x="23" y="63" width="11" height="16" xoffset="0" yoffset="3" xadvance="11" page="0" chnl="0" />
    <char id="225" x="11" y="63" width="11" height="16" xoffset="0" yoffset="3" xadvance="11" page="0" chnl="0" />
    <char id="226" x="0" y="63" width="11" height="16" xoffset="0" yoffset="3" xadvance="11" page="0" chnl="0" />
    <char id="227" x="267" y="62" width="12" height="16" xoffset="0" yoffset="3" xadvance="11" page="0" chnl="0" />
    <char id="228" x="231" y="112" width="11" height="15" xoffset="0" yoffset="4" xadvance="11" page="0" chnl="0" />
    <char id="229" x="12" y="80" width="11" height="16" xoffset="0" yoffset="3" xadvance="11" page="0" chnl="0" />
    <char id="230" x="433" y="126" width="18" height="11" xoffset="0" yoffset="8" xadvance="18" page="0" chnl="0" />
    <char id="231" x="243" y="112" width="11" height="15" xoffset="0" yoffset="8" xadvance="11" page="0" chnl="0" />
    <char id="232" x="24" y="80" width="11" height="16" xoffset="0" yoffset="3" xadvance="11" page="0" chnl="0" />
    <char id="233" x="36" y="80" width="11" height="16" xoffset="0" yoffset="3" xadvance="11" page="0" chnl="0" />
    <char id="234" x="48" y="80" width="11" height="16" xoffset="0" yoffset="3" xadvance="11" page="0" chnl="0" />
    <char id="235" x="255" y="112" width="11" height="15" xoffset="0" yoffset="4" xadvance="11" page="0" chnl="0" />
    <char id="236" x="319" y="79" width="5" height="16" xoffset="0" yoffset="3" xadvance="6" page="0" chnl="0" />
    <char id="237" x="253" y="79" width="8" height="16" xoffset="0" yoffset="3" xadvance="6" page="0" chnl="0" />
    <char id="238" x="262" y="79" width="8" height="16" xoffset="0" yoffset="3" xadvance="6" page="0" chnl="0" />
    <char id="239" x="397" y="111" width="9" height="15" xoffset="-1" yoffset="4" xadvance="6" page="0" chnl="0" />
    <char id="240" x="360" y="62" width="13" height="16" xoffset="0" yoffset="3" xadvance="12" page="0" chnl="0" />
    <char id="241" x="254" y="62" width="12" height="16" xoffset="0" yoffset="3" xadvance="12" page="0" chnl="0" />
    <char id="242" x="241" y="62" width="12" height="16" xoffset="0" yoffset="3" xadvance="12" page="0" chnl="0" />
    <char id="243" x="228" y="62" width="12" height="16" xoffset="0" yoffset="3" xadvance="12" page="0" chnl="0" />
    <char id="244" x="215" y="62" width="12" height="16" xoffset="0" yoffset="3" xadvance="12" page="0" chnl="0" />
    <char id="245" x="202" y="62" width="12" height="16" xoffset="0" yoffset="3" xadvance="12" page="0" chnl="0" />
    <char id="246" x="104" y="113" width="12" height="15" xoffset="0" yoffset="4" xadvance="12" page="0" chnl="0" />
    <char id="247" x="336" y="127" width="12" height="11" xoffset="0" yoffset="6" xadvance="12" page="0" chnl="0" />
    <char id="248" x="445" y="110" width="12" height="14" xoffset="0" yoffset="6" xadvance="12" page="0" chnl="0" />
    <char id="249" x="189" y="62" width="12" height="16" xoffset="0" yoffset="3" xadvance="12" page="0" chnl="0" />
    <char id="250" x="176" y="63" width="12" height="16" xoffset="0" yoffset="3" xadvance="12" page="0" chnl="0" />
    <char id="251" x="163" y="63" width="12" height="16" xoffset="0" yoffset="3" xadvance="12" page="0" chnl="0" />
    <char id="252" x="117" y="113" width="12" height="15" xoffset="0" yoffset="4" xadvance="12" page="0" chnl="0" />
    <char id="253" x="352" y="21" width="13" height="20" xoffset="-1" yoffset="3" xadvance="11" page="0" chnl="0" />
    <char id="254" x="338" y="21" width="13" height="20" xoffset="-1" yoffset="3" xadvance="12" page="0" chnl="0" />
    <char id="255" x="260" y="42" width="13" height="19" xoffset="-1" yoffset="4" xadvance="11" page="0" chnl="0" />
    <char id="256" x="420" y="42" width="14" height="18" xoffset="-1" yoffset="1" xadvance="13" page="0" chnl="0" />
    <char id="257" x="130" y="113" width="12" height="15" xoffset="0" yoffset="4" xadvance="11" page="0" chnl="0" />
    <char id="258" x="156" y="43" width="14" height="19" xoffset="-1" yoffset="0" xadvance="13" page="0" chnl="0" />
    <char id="259" x="60" y="80" width="11" height="16" xoffset="0" yoffset="3" xadvance="11" page="0" chnl="0" />
    <char id="260" x="171" y="43" width="14" height="19" xoffset="-1" yoffset="4" xadvance="13" page="0" chnl="0" />
    <char id="261" x="267" y="112" width="11" height="15" xoffset="0" yoffset="8" xadvance="11" page="0" chnl="0" />
    <char id="262" x="498" y="21" width="14" height="20" xoffset="0" yoffset="-1" xadvance="13" page="0" chnl="0" />
    <char id="263" x="72" y="80" width="11" height="16" xoffset="0" yoffset="3" xadvance="11" page="0" chnl="0" />
    <char id="264" x="483" y="21" width="14" height="20" xoffset="0" yoffset="-1" xadvance="13" page="0" chnl="0" />
    <char id="265" x="84" y="80" width="11" height="16" xoffset="0" yoffset="3" xadvance="11" page="0" chnl="0" />
    <char id="266" x="186" y="42" width="14" height="19" xoffset="0" yoffset="0" xadvance="13" page="0" chnl="0" />
    <char id="267" x="279" y="112" width="11" height="15" xoffset="0" yoffset="4" xadvance="11" page="0" chnl="0" />
    <char id="268" x="468" y="21" width="14" height="20" xoffset="0" yoffset="-1" xadvance="13" page="0" chnl="0" />
    <char id="269" x="96" y="80" width="11" height="16" xoffset="0" yoffset="3" xadvance="11" page="0" chnl="0" />
    <char id="270" x="453" y="21" width="14" height="20" xoffset="0" yoffset="-1" xadvance="14" page="0" chnl="0" />
    <char id="271" x="432" y="61" width="15" height="16" xoffset="0" yoffset="3" xadvance="12" page="0" chnl="0" />
    <char id="272" x="268" y="96" width="14" height="15" xoffset="0" yoffset="4" xadvance="14" page="0" chnl="0" />
    <char id="273" x="402" y="62" width="14" height="16" xoffset="0" yoffset="3" xadvance="12" page="0" chnl="0" />
    <char id="274" x="435" y="42" width="13" height="18" xoffset="0" yoffset="1" xadvance="12" page="0" chnl="0" />
    <char id="275" x="291" y="112" width="11" height="15" xoffset="0" yoffset="4" xadvance="11" page="0" chnl="0" />
    <char id="276" x="274" y="42" width="13" height="19" xoffset="0" yoffset="0" xadvance="12" page="0" chnl="0" />
    <char id="277" x="108" y="80" width="11" height="16" xoffset="0" yoffset="3" xadvance="11" page="0" chnl="0" />
    <char id="278" x="288" y="42" width="13" height="19" xoffset="0" yoffset="0" xadvance="12" page="0" chnl="0" />
    <char id="279" x="303" y="112" width="11" height="15" xoffset="0" yoffset="4" xadvance="11" page="0" chnl="0" />
    <char id="280" x="302" y="42" width="13" height="19" xoffset="0" yoffset="4" xadvance="12" page="0" chnl="0" />
    <char id="281" x="470" y="110" width="11" height="14" xoffset="0" yoffset="8" xadvance="11" page="0" chnl="0" />
    <char id="282" x="324" y="21" width="13" height="20" xoffset="0" yoffset="-1" xadvance="12" page="0" chnl="0" />
    <char id="283" x="120" y="80" width="11" height="16" xoffset="0" yoffset="3" xadvance="11" page="0" chnl="0" />
    <char id="284" x="438" y="21" width="14" height="20" xoffset="0" yoffset="-1" xadvance="14" page="0" chnl="0" />
    <char id="285" x="200" y="21" width="12" height="20" xoffset="0" yoffset="3" xadvance="12" page="0" chnl="0" />
    <char id="286" x="423" y="21" width="14" height="20" xoffset="0" yoffset="-1" xadvance="14" page="0" chnl="0" />
    <char id="287" x="187" y="21" width="12" height="20" xoffset="0" yoffset="3" xadvance="12" page="0" chnl="0" />
    <char id="288" x="201" y="42" width="14" height="19" xoffset="0" yoffset="0" xadvance="14" page="0" chnl="0" />
    <char id="289" x="330" y="42" width="12" height="19" xoffset="0" yoffset="4" xadvance="12" page="0" chnl="0" />
    <char id="290" x="56" y="0" width="14" height="21" xoffset="0" yoffset="4" xadvance="14" page="0" chnl="0" />
    <char id="291" x="114" y="0" width="12" height="21" xoffset="0" yoffset="2" xadvance="12" page="0" chnl="0" />
    <char id="292" x="325" y="0" width="15" height="20" xoffset="0" yoffset="-1" xadvance="15" page="0" chnl="0" />
    <char id="293" x="174" y="22" width="12" height="20" xoffset="0" yoffset="-1" xadvance="12" page="0" chnl="0" />
    <char id="294" x="481" y="78" width="16" height="15" xoffset="0" yoffset="4" xadvance="15" page="0" chnl="0" />
    <char id="295" x="150" y="63" width="12" height="16" xoffset="0" yoffset="3" xadvance="12" page="0" chnl="0" />
    <char id="296" x="113" y="22" width="10" height="20" xoffset="0" yoffset="-1" xadvance="6" page="0" chnl="0" />
    <char id="297" x="213" y="79" width="9" height="16" xoffset="0" yoffset="3" xadvance="6" page="0" chnl="0" />
    <char id="298" x="449" y="42" width="9" height="18" xoffset="0" yoffset="1" xadvance="6" page="0" chnl="0" />
    <char id="299" x="407" y="111" width="9" height="15" xoffset="0" yoffset="4" xadvance="6" page="0" chnl="0" />
    <char id="300" x="378" y="42" width="9" height="19" xoffset="0" yoffset="0" xadvance="6" page="0" chnl="0" />
    <char id="301" x="271" y="79" width="8" height="16" xoffset="0" yoffset="3" xadvance="6" page="0" chnl="0" />
    <char id="302" x="388" y="42" width="7" height="19" xoffset="-1" yoffset="4" xadvance="6" page="0" chnl="0" />
    <char id="303" x="64" y="22" width="8" height="20" xoffset="-2" yoffset="3" xadvance="5" page="0" chnl="0" />
    <char id="304" x="396" y="42" width="7" height="19" xoffset="0" yoffset="0" xadvance="6" page="0" chnl="0" />
    <char id="305" x="229" y="128" width="5" height="11" xoffset="0" yoffset="8" xadvance="6" page="0" chnl="0" />
    <char id="306" x="409" y="79" width="18" height="15" xoffset="0" yoffset="4" xadvance="18" page="0" chnl="0" />
    <char id="307" x="136" y="22" width="11" height="20" xoffset="0" yoffset="3" xadvance="11" page="0" chnl="0" />
    <char id="308" x="216" y="42" width="14" height="19" xoffset="0" yoffset="0" xadvance="12" page="0" chnl="0" />
    <char id="309" x="124" y="22" width="11" height="20" xoffset="-3" yoffset="3" xadvance="6" page="0" chnl="0" />
    <char id="310" x="71" y="0" width="14" height="21" xoffset="0" yoffset="4" xadvance="13" page="0" chnl="0" />
    <char id="311" x="0" y="0" width="12" height="22" xoffset="0" yoffset="3" xadvance="11" page="0" chnl="0" />
    <char id="312" x="388" y="127" width="13" height="11" xoffset="0" yoffset="8" xadvance="12" page="0" chnl="0" />
    <char id="313" x="356" y="42" width="11" height="19" xoffset="0" yoffset="0" xadvance="12" page="0" chnl="0" />
    <char id="314" x="73" y="22" width="9" height="20" xoffset="0" yoffset="-1" xadvance="5" page="0" chnl="0" />
    <char id="315" x="127" y="0" width="11" height="21" xoffset="0" yoffset="4" xadvance="12" page="0" chnl="0" />
    <char id="316" x="32" y="0" width="7" height="22" xoffset="-1" yoffset="3" xadvance="5" page="0" chnl="0" />
    <char id="317" x="315" y="112" width="11" height="15" xoffset="0" yoffset="4" xadvance="12" page="0" chnl="0" />
    <char id="318" x="223" y="79" width="9" height="16" xoffset="0" yoffset="3" xadvance="5" page="0" chnl="0" />
    <char id="319" x="327" y="111" width="11" height="15" xoffset="0" yoffset="4" xadvance="12" page="0" chnl="0" />
    <char id="320" x="280" y="79" width="8" height="16" xoffset="0" yoffset="3" xadvance="5" page="0" chnl="0" />
    <char id="321" x="339" y="111" width="11" height="15" xoffset="0" yoffset="4" xadvance="11" page="0" chnl="0" />
    <char id="322" x="297" y="79" width="7" height="16" xoffset="0" yoffset="3" xadvance="6" page="0" chnl="0" />
    <char id="323" x="341" y="0" width="15" height="20" xoffset="0" yoffset="-1" xadvance="15" page="0" chnl="0" />
    <char id="324" x="137" y="63" width="12" height="16" xoffset="0" yoffset="3" xadvance="12" page="0" chnl="0" />
    <char id="325" x="40" y="0" width="15" height="21" xoffset="0" yoffset="4" xadvance="15" page="0" chnl="0" />
    <char id="326" x="500" y="60" width="12" height="17" xoffset="0" yoffset="8" xadvance="12" page="0" chnl="0" />
    <char id="327" x="357" y="0" width="15" height="20" xoffset="0" yoffset="-1" xadvance="15" page="0" chnl="0" />
    <char id="328" x="124" y="63" width="12" height="16" xoffset="0" yoffset="3" xadvance="12" page="0" chnl="0" />
    <char id="329" x="111" y="63" width="12" height="16" xoffset="0" yoffset="3" xadvance="12" page="0" chnl="0" />
    <char id="330" x="16" y="43" width="15" height="19" xoffset="0" yoffset="4" xadvance="15" page="0" chnl="0" />
    <char id="331" x="143" y="113" width="12" height="15" xoffset="0" yoffset="8" xadvance="12" page="0" chnl="0" />
    <char id="332" x="32" y="43" width="15" height="19" xoffset="0" yoffset="0" xadvance="14" page="0" chnl="0" />
    <char id="333" x="156" y="113" width="12" height="15" xoffset="0" yoffset="4" xadvance="12" page="0" chnl="0" />
    <char id="334" x="373" y="0" width="15" height="20" xoffset="0" yoffset="-1" xadvance="14" page="0" chnl="0" />
    <char id="335" x="98" y="63" width="12" height="16" xoffset="0" yoffset="3" xadvance="12" page="0" chnl="0" />
    <char id="336" x="389" y="0" width="15" height="20" xoffset="0" yoffset="-1" xadvance="14" page="0" chnl="0" />
    <char id="337" x="346" y="62" width="13" height="16" xoffset="0" yoffset="3" xadvance="12" page="0" chnl="0" />
    <char id="338" x="348" y="79" width="20" height="15" xoffset="0" yoffset="4" xadvance="20" page="0" chnl="0" />
    <char id="339" x="471" y="125" width="19" height="11" xoffset="0" yoffset="8" xadvance="19" page="0" chnl="0" />
    <char id="340" x="310" y="21" width="13" height="20" xoffset="0" yoffset="-1" xadvance="13" page="0" chnl="0" />
    <char id="341" x="192" y="79" width="10" height="16" xoffset="0" yoffset="3" xadvance="7" page="0" chnl="0" />
    <char id="342" x="86" y="0" width="13" height="21" xoffset="0" yoffset="4" xadvance="13" page="0" chnl="0" />
    <char id="343" x="459" y="42" width="9" height="18" xoffset="-1" yoffset="7" xadvance="7" page="0" chnl="0" />
    <char id="344" x="296" y="21" width="13" height="20" xoffset="0" yoffset="-1" xadvance="13" page="0" chnl="0" />
    <char id="345" x="233" y="79" width="9" height="16" xoffset="0" yoffset="3" xadvance="7" page="0" chnl="0" />
    <char id="346" x="282" y="21" width="13" height="20" xoffset="0" yoffset="-1" xadvance="13" page="0" chnl="0" />
    <char id="347" x="132" y="80" width="11" height="16" xoffset="0" yoffset="3" xadvance="11" page="0" chnl="0" />
    <char id="348" x="268" y="21" width="13" height="20" xoffset="0" yoffset="-1" xadvance="13" page="0" chnl="0" />
    <char id="349" x="144" y="80" width="11" height="16" xoffset="0" yoffset="3" xadvance="11" page="0" chnl="0" />
    <char id="350" x="316" y="42" width="13" height="19" xoffset="0" yoffset="4" xadvance="13" page="0" chnl="0" />
    <char id="351" x="351" y="111" width="11" height="15" xoffset="0" yoffset="8" xadvance="11" page="0" chnl="0" />
    <char id="352" x="254" y="21" width="13" height="20" xoffset="0" yoffset="-1" xadvance="13" page="0" chnl="0" />
    <char id="353" x="156" y="80" width="11" height="16" xoffset="0" yoffset="3" xadvance="11" page="0" chnl="0" />
    <char id="354" x="100" y="0" width="13" height="21" xoffset="1" yoffset="4" xadvance="12" page="0" chnl="0" />
    <char id="355" x="55" y="22" width="8" height="20" xoffset="0" yoffset="5" xadvance="7" page="0" chnl="0" />
    <char id="356" x="240" y="21" width="13" height="20" xoffset="1" yoffset="-1" xadvance="12" page="0" chnl="0" />
    <char id="357" x="489" y="60" width="10" height="17" xoffset="0" yoffset="2" xadvance="7" page="0" chnl="0" />
    <char id="358" x="72" y="97" width="13" height="15" xoffset="1" yoffset="4" xadvance="12" page="0" chnl="0" />
    <char id="359" x="491" y="110" width="8" height="14" xoffset="0" yoffset="5" xadvance="7" page="0" chnl="0" />
    <char id="360" x="405" y="0" width="15" height="20" xoffset="0" yoffset="-1" xadvance="14" page="0" chnl="0" />
    <char id="361" x="85" y="63" width="12" height="16" xoffset="0" yoffset="3" xadvance="12" page="0" chnl="0" />
    <char id="362" x="404" y="42" width="15" height="18" xoffset="0" yoffset="1" xadvance="14" page="0" chnl="0" />
    <char id="363" x="169" y="113" width="12" height="15" xoffset="0" yoffset="4" xadvance="12" page="0" chnl="0" />
    <char id="364" x="48" y="43" width="15" height="19" xoffset="0" yoffset="0" xadvance="14" page="0" chnl="0" />
    <char id="365" x="72" y="63" width="12" height="16" xoffset="0" yoffset="3" xadvance="12" page="0" chnl="0" />
    <char id="366" x="64" y="43" width="15" height="19" xoffset="0" yoffset="0" xadvance="14" page="0" chnl="0" />
    <char id="367" x="59" y="63" width="12" height="16" xoffset="0" yoffset="3" xadvance="12" page="0" chnl="0" />
    <char id="368" x="421" y="0" width="15" height="20" xoffset="0" yoffset="-1" xadvance="14" page="0" chnl="0" />
    <char id="369" x="332" y="62" width="13" height="16" xoffset="0" yoffset="3" xadvance="12" page="0" chnl="0" />
    <char id="370" x="80" y="43" width="15" height="19" xoffset="0" yoffset="4" xadvance="14" page="0" chnl="0" />
    <char id="371" x="182" y="113" width="12" height="15" xoffset="0" yoffset="8" xadvance="12" page="0" chnl="0" />
    <char id="372" x="177" y="0" width="19" height="20" xoffset="1" yoffset="-1" xadvance="18" page="0" chnl="0" />
    <char id="373" x="448" y="61" width="16" height="16" xoffset="1" yoffset="3" xadvance="16" page="0" chnl="0" />
    <char id="374" x="408" y="21" width="14" height="20" xoffset="1" yoffset="-1" xadvance="13" page="0" chnl="0" />
    <char id="375" x="226" y="21" width="13" height="20" xoffset="-1" yoffset="3" xadvance="11" page="0" chnl="0" />
    <char id="376" x="231" y="42" width="14" height="19" xoffset="1" yoffset="0" xadvance="13" page="0" chnl="0" />
    <char id="377" x="161" y="22" width="12" height="20" xoffset="0" yoffset="-1" xadvance="12" page="0" chnl="0" />
    <char id="378" x="168" y="80" width="11" height="16" xoffset="0" yoffset="3" xadvance="11" page="0" chnl="0" />
    <char id="379" x="343" y="42" width="12" height="19" xoffset="0" yoffset="0" xadvance="12" page="0" chnl="0" />
    <char id="380" x="363" y="111" width="11" height="15" xoffset="0" yoffset="4" xadvance="11" page="0" chnl="0" />
    <char id="381" x="148" y="22" width="12" height="20" xoffset="0" yoffset="-1" xadvance="12" page="0" chnl="0" />
    <char id="382" x="180" y="80" width="11" height="16" xoffset="0" yoffset="3" xadvance="11" page="0" chnl="0" />
    <char id="383" x="243" y="79" width="9" height="16" xoffset="0" yoffset="3" xadvance="5" page="0" chnl="0" />
    <char id="768" x="52" y="129" width="4" height="5" xoffset="-8" yoffset="1" xadvance="0" page="0" chnl="0" />
    <char id="769" x="62" y="129" width="5" height="5" xoffset="-7" yoffset="1" xadvance="0" page="0" chnl="0" />
    <char id="771" x="37" y="129" width="9" height="4" xoffset="-8" yoffset="3" xadvance="0" page="0" chnl="0" />
    <char id="777" x="47" y="129" width="4" height="5" xoffset="-6" yoffset="1" xadvance="0" page="0" chnl="0" />
    <char id="783" x="27" y="129" width="9" height="3" xoffset="-9" yoffset="3" xadvance="0" page="0" chnl="0" />
    <char id="803" x="46" y="135" width="4" height="2" xoffset="-9" yoffset="20" xadvance="0" page="0" chnl="0" />
  </chars>
  <kernings count="330">
    <kerning first="34" second="65" amount="-2" /><!-- '"' to 'A' -->
    <kerning first="34" second="99" amount="-2" /><!-- '"' to 'c' -->
    <kerning first="34" second="100" amount="-2" /><!-- '"' to 'd' -->
    <kerning first="34" second="101" amount="-2" /><!-- '"' to 'e' -->
    <kerning first="34" second="103" amount="-2" /><!-- '"' to 'g' -->
    <kerning first="34" second="111" amount="-2" /><!-- '"' to 'o' -->
    <kerning first="34" second="113" amount="-2" /><!-- '"' to 'q' -->
    <kerning first="34" second="115" amount="-2" /><!-- '"' to 's' -->
    <kerning first="34" second="192" amount="-2" /><!-- '"' to 'À' -->
    <kerning first="34" second="193" amount="-2" /><!-- '"' to 'Á' -->
    <kerning first="34" second="194" amount="-2" /><!-- '"' to 'Â' -->
    <kerning first="34" second="195" amount="-2" /><!-- '"' to 'Ã' -->
    <kerning first="34" second="196" amount="-2" /><!-- '"' to 'Ä' -->
    <kerning first="34" second="197" amount="-2" /><!-- '"' to 'Å' -->
    <kerning first="34" second="231" amount="-2" /><!-- '"' to 'ç' -->
    <kerning first="34" second="232" amount="-2" /><!-- '"' to 'è' -->
    <kerning first="34" second="233" amount="-2" /><!-- '"' to 'é' -->
    <kerning first="34" second="234" amount="-2" /><!-- '"' to 'ê' -->
    <kerning first="34" second="235" amount="-2" /><!-- '"' to 'ë' -->
    <kerning first="34" second="242" amount="-2" /><!-- '"' to 'ò' -->
    <kerning first="34" second="243" amount="-2" /><!-- '"' to 'ó' -->
    <kerning first="34" second="244" amount="-2" /><!-- '"' to 'ô' -->
    <kerning first="34" second="245" amount="-2" /><!-- '"' to 'õ' -->
    <kerning first="34" second="246" amount="-2" /><!-- '"' to 'ö' -->
    <kerning first="34" second="339" amount="-2" /><!-- '"' to 'œ' -->
    <kerning first="39" second="65" amount="-2" /><!-- ''' to 'A' -->
    <kerning first="39" second="99" amount="-2" /><!-- ''' to 'c' -->
    <kerning first="39" second="100" amount="-2" /><!-- ''' to 'd' -->
    <kerning first="39" second="101" amount="-2" /><!-- ''' to 'e' -->
    <kerning first="39" second="103" amount="-2" /><!-- ''' to 'g' -->
    <kerning first="39" second="111" amount="-2" /><!-- ''' to 'o' -->
    <kerning first="39" second="113" amount="-2" /><!-- ''' to 'q' -->
    <kerning first="39" second="115" amount="-2" /><!-- ''' to 's' -->
    <kerning first="39" second="192" amount="-2" /><!-- ''' to 'À' -->
    <kerning first="39" second="193" amount="-2" /><!-- ''' to 'Á' -->
    <kerning first="39" second="194" amount="-2" /><!-- ''' to 'Â' -->
    <kerning first="39" second="195" amount="-2" /><!-- ''' to 'Ã' -->
    <kerning first="39" second="196" amount="-2" /><!-- ''' to 'Ä' -->
    <kerning first="39" second="197" amount="-2" /><!-- ''' to 'Å' -->
    <kerning first="39" second="231" amount="-2" /><!-- ''' to 'ç' -->
    <kerning first="39" second="232" amount="-2" /><!-- ''' to 'è' -->
    <kerning first="39" second="233" amount="-2" /><!-- ''' to 'é' -->
    <kerning first="39" second="234" amount="-2" /><!-- ''' to 'ê' -->
    <kerning first="39" second="235" amount="-2" /><!-- ''' to 'ë' -->
    <kerning first="39" second="242" amount="-2" /><!-- ''' to 'ò' -->
    <kerning first="39" second="243" amount="-2" /><!-- ''' to 'ó' -->
    <kerning first="39" second="244" amount="-2" /><!-- ''' to 'ô' -->
    <kerning first="39" second="245" amount="-2" /><!-- ''' to 'õ' -->
    <kerning first="39" second="246" amount="-2" /><!-- ''' to 'ö' -->
    <kerning first="39" second="339" amount="-2" /><!-- ''' to 'œ' -->
    <kerning first="65" second="34" amount="-2" /><!-- 'A' to '"' -->
    <kerning first="65" second="39" amount="-2" /><!-- 'A' to ''' -->
    <kerning first="65" second="63" amount="-2" /><!-- 'A' to '?' -->
    <kerning first="65" second="84" amount="-2" /><!-- 'A' to 'T' -->
    <kerning first="65" second="86" amount="-2" /><!-- 'A' to 'V' -->
    <kerning first="65" second="89" amount="-3" /><!-- 'A' to 'Y' -->
    <kerning first="65" second="376" amount="-3" /><!-- 'A' to 'Ÿ' -->
    <kerning first="68" second="44" amount="-2" /><!-- 'D' to ',' -->
    <kerning first="68" second="46" amount="-2" /><!-- 'D' to '.' -->
    <kerning first="68" second="58" amount="-2" /><!-- 'D' to ':' -->
    <kerning first="70" second="44" amount="-3" /><!-- 'F' to ',' -->
    <kerning first="70" second="46" amount="-3" /><!-- 'F' to '.' -->
    <kerning first="70" second="58" amount="-3" /><!-- 'F' to ':' -->
    <kerning first="70" second="65" amount="-2" /><!-- 'F' to 'A' -->
    <kerning first="70" second="192" amount="-2" /><!-- 'F' to 'À' -->
    <kerning first="70" second="193" amount="-2" /><!-- 'F' to 'Á' -->
    <kerning first="70" second="194" amount="-2" /><!-- 'F' to 'Â' -->
    <kerning first="70" second="195" amount="-2" /><!-- 'F' to 'Ã' -->
    <kerning first="70" second="196" amount="-2" /><!-- 'F' to 'Ä' -->
    <kerning first="70" second="197" amount="-2" /><!-- 'F' to 'Å' -->
    <kerning first="75" second="45" amount="-2" /><!-- 'K' to '-' -->
    <kerning first="75" second="119" amount="-2" /><!-- 'K' to 'w' -->
    <kerning first="76" second="34" amount="-3" /><!-- 'L' to '"' -->
    <kerning first="76" second="39" amount="-3" /><!-- 'L' to ''' -->
    <kerning first="76" second="84" amount="-3" /><!-- 'L' to 'T' -->
    <kerning first="76" second="86" amount="-3" /><!-- 'L' to 'V' -->
    <kerning first="76" second="87" amount="-2" /><!-- 'L' to 'W' -->
    <kerning first="76" second="89" amount="-3" /><!-- 'L' to 'Y' -->
    <kerning first="76" second="118" amount="-2" /><!-- 'L' to 'v' -->
    <kerning first="76" second="121" amount="-2" /><!-- 'L' to 'y' -->
    <kerning first="76" second="255" amount="-2" /><!-- 'L' to 'ÿ' -->
    <kerning first="76" second="376" amount="-3" /><!-- 'L' to 'Ÿ' -->
    <kerning first="79" second="44" amount="-2" /><!-- 'O' to ',' -->
    <kerning first="79" second="46" amount="-2" /><!-- 'O' to '.' -->
    <kerning first="79" second="58" amount="-2" /><!-- 'O' to ':' -->
    <kerning first="80" second="44" amount="-4" /><!-- 'P' to ',' -->
    <kerning first="80" second="46" amount="-4" /><!-- 'P' to '.' -->
    <kerning first="80" second="58" amount="-4" /><!-- 'P' to ':' -->
    <kerning first="80" second="65" amount="-3" /><!-- 'P' to 'A' -->
    <kerning first="80" second="192" amount="-3" /><!-- 'P' to 'À' -->
    <kerning first="80" second="193" amount="-3" /><!-- 'P' to 'Á' -->
    <kerning first="80" second="194" amount="-3" /><!-- 'P' to 'Â' -->
    <kerning first="80" second="195" amount="-3" /><!-- 'P' to 'Ã' -->
    <kerning first="80" second="196" amount="-3" /><!-- 'P' to 'Ä' -->
    <kerning first="80" second="197" amount="-3" /><!-- 'P' to 'Å' -->
    <kerning first="80" second="198" amount="-4" /><!-- 'P' to 'Æ' -->
    <kerning first="84" second="44" amount="-3" /><!-- 'T' to ',' -->
    <kerning first="84" second="45" amount="-3" /><!-- 'T' to '-' -->
    <kerning first="84" second="46" amount="-3" /><!-- 'T' to '.' -->
    <kerning first="84" second="58" amount="-3" /><!-- 'T' to ':' -->
    <kerning first="84" second="65" amount="-2" /><!-- 'T' to 'A' -->
    <kerning first="84" second="97" amount="-2" /><!-- 'T' to 'a' -->
    <kerning first="84" second="99" amount="-2" /><!-- 'T' to 'c' -->
    <kerning first="84" second="100" amount="-2" /><!-- 'T' to 'd' -->
    <kerning first="84" second="101" amount="-2" /><!-- 'T' to 'e' -->
    <kerning first="84" second="103" amount="-2" /><!-- 'T' to 'g' -->
    <kerning first="84" second="109" amount="-2" /><!-- 'T' to 'm' -->
    <kerning first="84" second="110" amount="-2" /><!-- 'T' to 'n' -->
    <kerning first="84" second="111" amount="-2" /><!-- 'T' to 'o' -->
    <kerning first="84" second="112" amount="-2" /><!-- 'T' to 'p' -->
    <kerning first="84" second="113" amount="-2" /><!-- 'T' to 'q' -->
    <kerning first="84" second="114" amount="-2" /><!-- 'T' to 'r' -->
    <kerning first="84" second="115" amount="-2" /><!-- 'T' to 's' -->
    <kerning first="84" second="117" amount="-2" /><!-- 'T' to 'u' -->
    <kerning first="84" second="118" amount="-2" /><!-- 'T' to 'v' -->
    <kerning first="84" second="120" amount="-2" /><!-- 'T' to 'x' -->
    <kerning first="84" second="121" amount="-2" /><!-- 'T' to 'y' -->
    <kerning first="84" second="122" amount="-2" /><!-- 'T' to 'z' -->
    <kerning first="84" second="171" amount="-2" /><!-- 'T' to '«' -->
    <kerning first="84" second="187" amount="-2" /><!-- 'T' to '»' -->
    <kerning first="84" second="192" amount="-2" /><!-- 'T' to 'À' -->
    <kerning first="84" second="193" amount="-2" /><!-- 'T' to 'Á' -->
    <kerning first="84" second="194" amount="-2" /><!-- 'T' to 'Â' -->
    <kerning first="84" second="195" amount="-2" /><!-- 'T' to 'Ã' -->
    <kerning first="84" second="196" amount="-2" /><!-- 'T' to 'Ä' -->
    <kerning first="84" second="197" amount="-2" /><!-- 'T' to 'Å' -->
    <kerning first="84" second="198" amount="-3" /><!-- 'T' to 'Æ' -->
    <kerning first="84" second="224" amount="-2" /><!-- 'T' to 'à' -->
    <kerning first="84" second="225" amount="-2" /><!-- 'T' to 'á' -->
    <kerning first="84" second="226" amount="-2" /><!-- 'T' to 'â' -->
    <kerning first="84" second="227" amount="-2" /><!-- 'T' to 'ã' -->
    <kerning first="84" second="228" amount="-2" /><!-- 'T' to 'ä' -->
    <kerning first="84" second="229" amount="-2" /><!-- 'T' to 'å' -->
    <kerning first="84" second="230" amount="-2" /><!-- 'T' to 'æ' -->
    <kerning first="84" second="231" amount="-2" /><!-- 'T' to 'ç' -->
    <kerning first="84" second="232" amount="-2" /><!-- 'T' to 'è' -->
    <kerning first="84" second="233" amount="-2" /><!-- 'T' to 'é' -->
    <kerning first="84" second="234" amount="-2" /><!-- 'T' to 'ê' -->
    <kerning first="84" second="235" amount="-2" /><!-- 'T' to 'ë' -->
    <kerning first="84" second="241" amount="-2" /><!-- 'T' to 'ñ' -->
    <kerning first="84" second="242" amount="-2" /><!-- 'T' to 'ò' -->
    <kerning first="84" second="243" amount="-2" /><!-- 'T' to 'ó' -->
    <kerning first="84" second="244" amount="-2" /><!-- 'T' to 'ô' -->
    <kerning first="84" second="245" amount="-2" /><!-- 'T' to 'õ' -->
    <kerning first="84" second="246" amount="-2" /><!-- 'T' to 'ö' -->
    <kerning first="84" second="248" amount="-2" /><!-- 'T' to 'ø' -->
    <kerning first="84" second="249" amount="-2" /><!-- 'T' to 'ù' -->
    <kerning first="84" second="250" amount="-2" /><!-- 'T' to 'ú' -->
    <kerning first="84" second="251" amount="-2" /><!-- 'T' to 'û' -->
    <kerning first="84" second="252" amount="-2" /><!-- 'T' to 'ü' -->
    <kerning first="84" second="255" amount="-2" /><!-- 'T' to 'ÿ' -->
    <kerning first="84" second="339" amount="-2" /><!-- 'T' to 'œ' -->
    <kerning first="86" second="44" amount="-3" /><!-- 'V' to ',' -->
    <kerning first="86" second="45" amount="-2" /><!-- 'V' to '-' -->
    <kerning first="86" second="46" amount="-3" /><!-- 'V' to '.' -->
    <kerning first="86" second="58" amount="-3" /><!-- 'V' to ':' -->
    <kerning first="86" second="65" amount="-2" /><!-- 'V' to 'A' -->
    <kerning first="86" second="192" amount="-2" /><!-- 'V' to 'À' -->
    <kerning first="86" second="193" amount="-2" /><!-- 'V' to 'Á' -->
    <kerning first="86" second="194" amount="-2" /><!-- 'V' to 'Â' -->
    <kerning first="86" second="195" amount="-2" /><!-- 'V' to 'Ã' -->
    <kerning first="86" second="196" amount="-2" /><!-- 'V' to 'Ä' -->
    <kerning first="86" second="197" amount="-2" /><!-- 'V' to 'Å' -->
    <kerning first="87" second="44" amount="-2" /><!-- 'W' to ',' -->
    <kerning first="87" second="45" amount="-2" /><!-- 'W' to '-' -->
    <kerning first="87" second="46" amount="-2" /><!-- 'W' to '.' -->
    <kerning first="87" second="58" amount="-2" /><!-- 'W' to ':' -->
    <kerning first="88" second="45" amount="-2" /><!-- 'X' to '-' -->
    <kerning first="89" second="44" amount="-3" /><!-- 'Y' to ',' -->
    <kerning first="89" second="45" amount="-2" /><!-- 'Y' to '-' -->
    <kerning first="89" second="46" amount="-3" /><!-- 'Y' to '.' -->
    <kerning first="89" second="58" amount="-3" /><!-- 'Y' to ':' -->
    <kerning first="89" second="65" amount="-2" /><!-- 'Y' to 'A' -->
    <kerning first="89" second="74" amount="-2" /><!-- 'Y' to 'J' -->
    <kerning first="89" second="85" amount="-2" /><!-- 'Y' to 'U' -->
    <kerning first="89" second="97" amount="-2" /><!-- 'Y' to 'a' -->
    <kerning first="89" second="99" amount="-2" /><!-- 'Y' to 'c' -->
    <kerning first="89" second="100" amount="-2" /><!-- 'Y' to 'd' -->
    <kerning first="89" second="101" amount="-2" /><!-- 'Y' to 'e' -->
    <kerning first="89" second="103" amount="-2" /><!-- 'Y' to 'g' -->
    <kerning first="89" second="111" amount="-2" /><!-- 'Y' to 'o' -->
    <kerning first="89" second="113" amount="-2" /><!-- 'Y' to 'q' -->
    <kerning first="89" second="171" amount="-2" /><!-- 'Y' to '«' -->
    <kerning first="89" second="192" amount="-2" /><!-- 'Y' to 'À' -->
    <kerning first="89" second="193" amount="-2" /><!-- 'Y' to 'Á' -->
    <kerning first="89" second="194" amount="-2" /><!-- 'Y' to 'Â' -->
    <kerning first="89" second="195" amount="-2" /><!-- 'Y' to 'Ã' -->
    <kerning first="89" second="196" amount="-2" /><!-- 'Y' to 'Ä' -->
    <kerning first="89" second="197" amount="-2" /><!-- 'Y' to 'Å' -->
    <kerning first="89" second="198" amount="-2" /><!-- 'Y' to 'Æ' -->
    <kerning first="89" second="217" amount="-2" /><!-- 'Y' to 'Ù' -->
    <kerning first="89" second="218" amount="-2" /><!-- 'Y' to 'Ú' -->
    <kerning first="89" second="219" amount="-2" /><!-- 'Y' to 'Û' -->
    <kerning first="89" second="220" amount="-2" /><!-- 'Y' to 'Ü' -->
    <kerning first="89" second="224" amount="-2" /><!-- 'Y' to 'à' -->
    <kerning first="89" second="225" amount="-2" /><!-- 'Y' to 'á' -->
    <kerning first="89" second="226" amount="-2" /><!-- 'Y' to 'â' -->
    <kerning first="89" second="227" amount="-2" /><!-- 'Y' to 'ã' -->
    <kerning first="89" second="228" amount="-2" /><!-- 'Y' to 'ä' -->
    <kerning first="89" second="229" amount="-2" /><!-- 'Y' to 'å' -->
    <kerning first="89" second="230" amount="-2" /><!-- 'Y' to 'æ' -->
    <kerning first="89" second="231" amount="-2" /><!-- 'Y' to 'ç' -->
    <kerning first="89" second="232" amount="-2" /><!-- 'Y' to 'è' -->
    <kerning first="89" second="233" amount="-2" /><!-- 'Y' to 'é' -->
    <kerning first="89" second="234" amount="-2" /><!-- 'Y' to 'ê' -->
    <kerning first="89" second="235" amount="-2" /><!-- 'Y' to 'ë' -->
    <kerning first="89" second="242" amount="-2" /><!-- 'Y' to 'ò' -->
    <kerning first="89" second="243" amount="-2" /><!-- 'Y' to 'ó' -->
    <kerning first="89" second="244" amount="-2" /><!-- 'Y' to 'ô' -->
    <kerning first="89" second="245" amount="-2" /><!-- 'Y' to 'õ' -->
    <kerning first="89" second="246" amount="-2" /><!-- 'Y' to 'ö' -->
    <kerning first="89" second="248" amount="-2" /><!-- 'Y' to 'ø' -->
    <kerning first="89" second="339" amount="-2" /><!-- 'Y' to 'œ' -->
    <kerning first="114" second="44" amount="-2" /><!-- 'r' to ',' -->
    <kerning first="114" second="46" amount="-2" /><!-- 'r' to '.' -->
    <kerning first="114" second="58" amount="-2" /><!-- 'r' to ':' -->
    <kerning first="118" second="44" amount="-2" /><!-- 'v' to ',' -->
    <kerning first="118" second="46" amount="-2" /><!-- 'v' to '.' -->
    <kerning first="118" second="58" amount="-2" /><!-- 'v' to ':' -->
    <kerning first="119" second="44" amount="-2" /><!-- 'w' to ',' -->
    <kerning first="119" second="46" amount="-2" /><!-- 'w' to '.' -->
    <kerning first="119" second="58" amount="-2" /><!-- 'w' to ':' -->
    <kerning first="121" second="44" amount="-2" /><!-- 'y' to ',' -->
    <kerning first="121" second="46" amount="-2" /><!-- 'y' to '.' -->
    <kerning first="121" second="58" amount="-2" /><!-- 'y' to ':' -->
    <kerning first="192" second="34" amount="-2" /><!-- 'À' to '"' -->
    <kerning first="192" second="39" amount="-2" /><!-- 'À' to ''' -->
    <kerning first="192" second="63" amount="-2" /><!-- 'À' to '?' -->
    <kerning first="192" second="84" amount="-2" /><!-- 'À' to 'T' -->
    <kerning first="192" second="86" amount="-2" /><!-- 'À' to 'V' -->
    <kerning first="192" second="89" amount="-3" /><!-- 'À' to 'Y' -->
    <kerning first="192" second="376" amount="-3" /><!-- 'À' to 'Ÿ' -->
    <kerning first="193" second="34" amount="-2" /><!-- 'Á' to '"' -->
    <kerning first="193" second="39" amount="-2" /><!-- 'Á' to ''' -->
    <kerning first="193" second="63" amount="-2" /><!-- 'Á' to '?' -->
    <kerning first="193" second="84" amount="-2" /><!-- 'Á' to 'T' -->
    <kerning first="193" second="86" amount="-2" /><!-- 'Á' to 'V' -->
    <kerning first="193" second="89" amount="-3" /><!-- 'Á' to 'Y' -->
    <kerning first="193" second="376" amount="-3" /><!-- 'Á' to 'Ÿ' -->
    <kerning first="194" second="34" amount="-2" /><!-- 'Â' to '"' -->
    <kerning first="194" second="39" amount="-2" /><!-- 'Â' to ''' -->
    <kerning first="194" second="63" amount="-2" /><!-- 'Â' to '?' -->
    <kerning first="194" second="84" amount="-2" /><!-- 'Â' to 'T' -->
    <kerning first="194" second="86" amount="-2" /><!-- 'Â' to 'V' -->
    <kerning first="194" second="89" amount="-3" /><!-- 'Â' to 'Y' -->
    <kerning first="194" second="376" amount="-3" /><!-- 'Â' to 'Ÿ' -->
    <kerning first="195" second="34" amount="-2" /><!-- 'Ã' to '"' -->
    <kerning first="195" second="39" amount="-2" /><!-- 'Ã' to ''' -->
    <kerning first="195" second="63" amount="-2" /><!-- 'Ã' to '?' -->
    <kerning first="195" second="84" amount="-2" /><!-- 'Ã' to 'T' -->
    <kerning first="195" second="86" amount="-2" /><!-- 'Ã' to 'V' -->
    <kerning first="195" second="89" amount="-3" /><!-- 'Ã' to 'Y' -->
    <kerning first="195" second="376" amount="-3" /><!-- 'Ã' to 'Ÿ' -->
    <kerning first="196" second="34" amount="-2" /><!-- 'Ä' to '"' -->
    <kerning first="196" second="39" amount="-2" /><!-- 'Ä' to ''' -->
    <kerning first="196" second="63" amount="-2" /><!-- 'Ä' to '?' -->
    <kerning first="196" second="84" amount="-2" /><!-- 'Ä' to 'T' -->
    <kerning first="196" second="86" amount="-2" /><!-- 'Ä' to 'V' -->
    <kerning first="196" second="89" amount="-3" /><!-- 'Ä' to 'Y' -->
    <kerning first="196" second="376" amount="-3" /><!-- 'Ä' to 'Ÿ' -->
    <kerning first="197" second="34" amount="-2" /><!-- 'Å' to '"' -->
    <kerning first="197" second="39" amount="-2" /><!-- 'Å' to ''' -->
    <kerning first="197" second="63" amount="-2" /><!-- 'Å' to '?' -->
    <kerning first="197" second="84" amount="-2" /><!-- 'Å' to 'T' -->
    <kerning first="197" second="86" amount="-2" /><!-- 'Å' to 'V' -->
    <kerning first="197" second="89" amount="-3" /><!-- 'Å' to 'Y' -->
    <kerning first="197" second="376" amount="-3" /><!-- 'Å' to 'Ÿ' -->
    <kerning first="210" second="44" amount="-2" /><!-- 'Ò' to ',' -->
    <kerning first="210" second="46" amount="-2" /><!-- 'Ò' to '.' -->
    <kerning first="210" second="58" amount="-2" /><!-- 'Ò' to ':' -->
    <kerning first="211" second="44" amount="-2" /><!-- 'Ó' to ',' -->
    <kerning first="211" second="46" amount="-2" /><!-- 'Ó' to '.' -->
    <kerning first="211" second="58" amount="-2" /><!-- 'Ó' to ':' -->
    <kerning first="212" second="44" amount="-2" /><!-- 'Ô' to ',' -->
    <kerning first="212" second="46" amount="-2" /><!-- 'Ô' to '.' -->
    <kerning first="212" second="58" amount="-2" /><!-- 'Ô' to ':' -->
    <kerning first="213" second="44" amount="-2" /><!-- 'Õ' to ',' -->
    <kerning first="213" second="46" amount="-2" /><!-- 'Õ' to '.' -->
    <kerning first="213" second="58" amount="-2" /><!-- 'Õ' to ':' -->
    <kerning first="214" second="44" amount="-2" /><!-- 'Ö' to ',' -->
    <kerning first="214" second="46" amount="-2" /><!-- 'Ö' to '.' -->
    <kerning first="214" second="58" amount="-2" /><!-- 'Ö' to ':' -->
    <kerning first="255" second="44" amount="-2" /><!-- 'ÿ' to ',' -->
    <kerning first="255" second="46" amount="-2" /><!-- 'ÿ' to '.' -->
    <kerning first="255" second="58" amount="-2" /><!-- 'ÿ' to ':' -->
    <kerning first="376" second="44" amount="-3" /><!-- 'Ÿ' to ',' -->
    <kerning first="376" second="45" amount="-2" /><!-- 'Ÿ' to '-' -->
    <kerning first="376" second="46" amount="-3" /><!-- 'Ÿ' to '.' -->
    <kerning first="376" second="58" amount="-3" /><!-- 'Ÿ' to ':' -->
    <kerning first="376" second="65" amount="-2" /><!-- 'Ÿ' to 'A' -->
    <kerning first="376" second="74" amount="-2" /><!-- 'Ÿ' to 'J' -->
    <kerning first="376" second="85" amount="-2" /><!-- 'Ÿ' to 'U' -->
    <kerning first="376" second="97" amount="-2" /><!-- 'Ÿ' to 'a' -->
    <kerning first="376" second="99" amount="-2" /><!-- 'Ÿ' to 'c' -->
    <kerning first="376" second="100" amount="-2" /><!-- 'Ÿ' to 'd' -->
    <kerning first="376" second="101" amount="-2" /><!-- 'Ÿ' to 'e' -->
    <kerning first="376" second="103" amount="-2" /><!-- 'Ÿ' to 'g' -->
    <kerning first="376" second="111" amount="-2" /><!-- 'Ÿ' to 'o' -->
    <kerning first="376" second="113" amount="-2" /><!-- 'Ÿ' to 'q' -->
    <kerning first="376" second="171" amount="-2" /><!-- 'Ÿ' to '«' -->
    <kerning first="376" second="192" amount="-2" /><!-- 'Ÿ' to 'À' -->
    <kerning first="376" second="193" amount="-2" /><!-- 'Ÿ' to 'Á' -->
    <kerning first="376" second="194" amount="-2" /><!-- 'Ÿ' to 'Â' -->
    <kerning first="376" second="195" amount="-2" /><!-- 'Ÿ' to 'Ã' -->
    <kerning first="376" second="196" amount="-2" /><!-- 'Ÿ' to 'Ä' -->
    <kerning first="376" second="197" amount="-2" /><!-- 'Ÿ' to 'Å' -->
    <kerning first="376" second="198" amount="-2" /><!-- 'Ÿ' to 'Æ' -->
    <kerning first="376" second="217" amount="-2" /><!-- 'Ÿ' to 'Ù' -->
    <kerning first="376" second="218" amount="-2" /><!-- 'Ÿ' to 'Ú' -->
    <kerning first="376" second="219" amount="-2" /><!-- 'Ÿ' to 'Û' -->
    <kerning first="376" second="220" amount="-2" /><!-- 'Ÿ' to 'Ü' -->
    <kerning first="376" second="224" amount="-2" /><!-- 'Ÿ' to 'à' -->
    <kerning first="376" second="225" amount="-2" /><!-- 'Ÿ' to 'á' -->
    <kerning first="376" second="226" amount="-2" /><!-- 'Ÿ' to 'â' -->
    <kerning first="376" second="227" amount="-2" /><!-- 'Ÿ' to 'ã' -->
    <kerning first="376" second="228" amount="-2" /><!-- 'Ÿ' to 'ä' -->
    <kerning first="376" second="229" amount="-2" /><!-- 'Ÿ' to 'å' -->
    <kerning first="376" second="230" amount="-2" /><!-- 'Ÿ' to 'æ' -->
    <kerning first="376" second="231" amount="-2" /><!-- 'Ÿ' to 'ç' -->
    <kerning first="376" second="232" amount="-2" /><!-- 'Ÿ' to 'è' -->
    <kerning first="376" second="233" amount="-2" /><!-- 'Ÿ' to 'é' -->
    <kerning first="376" second="234" amount="-2" /><!-- 'Ÿ' to 'ê' -->
    <kerning first="376" second="235" amount="-2" /><!-- 'Ÿ' to 'ë' -->
    <kerning first="376" second="242" amount="-2" /><!-- 'Ÿ' to 'ò' -->
    <kerning first="376" second="243" amount="-2" /><!-- 'Ÿ' to 'ó' -->
    <kerning first="376" second="244" amount="-2" /><!-- 'Ÿ' to 'ô' -->
    <kerning first="376" second="245" amount="-2" /><!-- 'Ÿ' to 'õ' -->
    <kerning first="376" second="246" amount="-2" /><!-- 'Ÿ' to 'ö' -->
    <kerning first="376" second="248" amount="-2" /><!-- 'Ÿ' to 'ø' -->
    <kerning first="376" second="339" amount="-2" /><!-- 'Ÿ' to 'œ' -->
  </kernings>
</font>